{
  "page":16,
  "totalPages":16,
  "totalResults":154,
  "sort":"popular",
  "cards":[
    {
      "page":"/content/www/us/en/insights/data-democratization-is-crucial-to-your-business",
      "type":"standard",
      "width":1,
      "background":"/content/dam/www/us/en/insights/cropped_images/Category_page_image_data_democratization.png",
      "imageAlt":"Orange ripple",
      "primaryTagId":"insights:collections/data-driven",
      "tags":[
        "insights:collections/data-driven"
      ],
      "article":{
        "title":"Why Data Democratization is Crucial to Your Business",
        "author":"",
        "url":"http://localhost:4502/content/www/us/en/insights/data-democratization-is-crucial-to-your-business.html"
      }
    },
    {
      "page":"/content/www/us/en/insights/4-lessons-for-todays-brands-from-aston-martins-first-concept-car",
      "type":"standard",
      "width":1,
      "background":"/content/dam/www/us/en/insights/cropped_images/4%20Lessons%20About%20Innovation%20From%20Aston%20Martin%e2%80%99s%20First%20Concept%20Car.jpg",
      "imageAlt":"Picture of a car. ",
      "primaryTagId":"insights:collections/innovation",
      "tags":[
        "insights:collections/perspectives",
        "insights:collections/innovation"
      ],
      "article":{
        "title":"4 Lessons About Innovation From Aston Martin\u2019s First Concept Car.",
        "author":"",
        "url":"http://localhost:4502/content/www/us/en/insights/4-lessons-for-todays-brands-from-aston-martins-first-concept-car.html"
      }
    },
    {
      "page":"/content/www/us/en/insights/15-stats-about-b2b-high-tech",
      "type":"standard",
      "width":1,
      "background":"/content/dam/www/us/en/insights/cropped_images/15digital_385x265.jpg",
      "imageAlt":"Number 15 on an orange background. ",
      "primaryTagId":"insights:industries/tech",
      "tags":[
        "insights:collections/digital-transformation",
        "insights:industries/tech"
      ],
      "article":{
        "title":"15 Mind-blowing stats about high-tech B2B.",
        "author":"",
        "url":"http://localhost:4502/content/www/us/en/insights/15-stats-about-b2b-high-tech.html"
      }
    },
    {
      "page":"/content/www/us/en/insights/enhancing-marketing-strategy-through-marketing-automation",
      "type":"standard",
      "width":1,
      "background":"/content/dam/www/us/en/insights/cropped_images/enhancing-marketing-strategy-through-marketing-automation-cropped.jpg",
      "imageAlt":"Zoomed in image of gear with the word \"brand\" on it",
      "primaryTagId":"insights:collections/digital-transformation",
      "tags":[
        "insights:industries/B2B",
        "insights:collections/digital-transformation"
      ],
      "article":{
        "title":"Enhancing Marketing Strategies Through Automation.",
        "author":"",
        "url":"http://localhost:4502/content/www/us/en/insights/enhancing-marketing-strategy-through-marketing-automation.html"
      }
    }
  ],
  "tags":{
    "insights":{
      "title":"Insights",
      "id":"insights",
      "color":"#FF4136",
      "url":"",
      "tags":{
        "industries":{
          "title":"Industries",
          "id":"insights:industries",
          "color":"#39CCCC",
          "url":"http://localhost:4502/content/www/us/en/insights.html",
          "tags":{
            "media-and-Entertainment":{
              "title":"Media & Entertainment",
              "id":"insights:industries/media-and-Entertainment",
              "color":"#bb121a",
              "url":"http://localhost:4502/content/www/us/en/insights/media-entertainment.html",
              "tags":{

              }
            },
            "tech":{
              "title":"Tech",
              "id":"insights:industries/tech",
              "color":"#bb121a",
              "url":"http://localhost:4502/content/www/us/en/insights/tech.html",
              "tags":{

              }
            },
            "B2B":{
              "title":"B2B",
              "id":"insights:industries/B2B",
              "color":"#bb121a",
              "url":"http://localhost:4502/content/www/us/en/insights/b2b.html",
              "tags":{

              }
            },
            "health-care":{
              "title":"Health Care",
              "id":"insights:industries/health-care",
              "color":"#bb121a",
              "url":"http://localhost:4502/content/www/us/en/insights/healthcare.html",
              "tags":{

              }
            },
            "retail":{
              "title":"Retail",
              "id":"insights:industries/retail",
              "color":"#bb121a",
              "url":"http://localhost:4502/content/www/us/en/insights/retail.html",
              "tags":{

              }
            },
            "travel-and-hospitality":{
              "title":"Travel and hospitality",
              "id":"insights:industries/travel-and-hospitality",
              "color":"#bb121a",
              "url":"http://localhost:4502/content/www/us/en/insights/travel-and-hospitality.html",
              "tags":{

              }
            },
            "fsi":{
              "title":"FSI",
              "id":"insights:industries/fsi",
              "color":"#bb121a",
              "url":"http://localhost:4502/content/www/us/en/insights/fsi.html",
              "tags":{

              }
            }
          }
        },
        "collections":{
          "title":"Collections",
          "id":"insights:collections",
          "color":"#7FDBFF",
          "url":"http://localhost:4502/content/www/us/en/insights.html",
          "tags":{
            "experience-design":{
              "title":"Design",
              "id":"insights:collections/experience-design",
              "color":"#002f99",
              "url":"http://localhost:4502/content/www/us/en/insights/design.html",
              "tags":{

              }
            },
            "innovation":{
              "title":"Innovation",
              "id":"insights:collections/innovation",
              "color":"#006f26",
              "url":"http://localhost:4502/content/www/us/en/insights/innovation.html",
              "tags":{

              }
            },
            "perspectives":{
              "title":"Perspectives",
              "id":"insights:collections/perspectives",
              "color":"#39CCCC",
              "url":"http://localhost:4502/content/www/us/en/insights/perspectives.html",
              "tags":{

              }
            },
            "data-driven":{
              "title":"Data Driven",
              "id":"insights:collections/data-driven",
              "color":"#550469",
              "url":"http://localhost:4502/content/www/us/en/insights/data-driven.html",
              "tags":{

              }
            },
            "workforce-productivity":{
              "title":"Workforce Productivity",
              "id":"insights:collections/workforce-productivity",
              "color":"#000000",
              "url":"http://localhost:4502/content/www/us/en/insights/workforce-productivity.html",
              "tags":{

              }
            },
            "advertising":{
              "title":"Advertising",
              "id":"insights:collections/advertising",
              "color":"#e85700",
              "url":"http://localhost:4502/content/www/us/en/insights/advertising.html",
              "tags":{

              }
            },
            "digital-transformation":{
              "title":"Digital Transformation",
              "id":"insights:collections/digital-transformation",
              "color":"#d80077",
              "url":"http://localhost:4502/content/www/us/en/insights/digital-transformation.html",
              "tags":{

              }
            },
            "cross-channel":{
              "title":"Cross-channel",
              "id":"insights:collections/cross-channel",
              "color":"#00939b",
              "url":"http://localhost:4502/content/www/us/en/insights/cross-channel.html",
              "tags":{

              }
            }
          }
        }
      }
    }
  }
}