{
  "page":1,
  "totalPages":16,
  "totalResults":154,
  "sort":"name",
  "cards":[
    {
      "page":"/content/www/us/en/cloud/james-alonsos-design-romance",
      "type":"standard",
      "width":1,
      "background":"/content/dam/www/us/en/cloud/james-alonsos-design-romance.jpg",
      "imageAlt":"Design Romance .",
      "primaryTagId":"cloud:topics/ui-and-ux",
      "tags":[
        "cloud:topics/ui-and-ux",
        "cloud:types/inspiration"
      ],
      "article":{
        "title":"James Alonso's Design Romance",
        "author":"",
        "url":"/content/www/us/en/cloud/james-alonsos-design-romance.html"
      }
    },
    {
      "page":"/content/www/us/en/cloud/layer-images-to-create-a-poster",
      "type":"standard",
      "width":1,
      "background":"/content/dam/www/us/en/cloud/layer-images-to-create-a-poster.html",
      "imageAlt":"Which layers to use... ",
      "primaryTagId":"cloud:topics/design",
      "tags":[
        "cloud:topics/design",
        "cloud:types/how-to"
      ],
      "article":{
        "title":"Layer Images to Create a Poster",
        "author":"",
        "url":"/content/www/us/en/cloud/layer-images-to-create-a-poster.html"
      }
    },
    {
      "page":"/content/www/us/en/cloud/descended-from-astronomers-rock",
      "type":"standard",
      "width":1,
      "background":"/content/dam/www/us/en/cloud/descended-from-astronomers-rock.jpg",
      "imageAlt":"Descended from astronomers rock",
      "primaryTagId":"cloud:topics/video",
      "tags":[
        "cloud:topics/video",
        "cloud:types/how-tos"
      ],
      "article":{
        "title":"Descended from astronomers rock",
        "author":"",
        "url":"/content/www/us/en/cloud/descended-from-astronomers-rock.html"
      }
    },
  ],
  "tags":{
    "insights":{
      "title":"Design",
      "id":"insights",
      "color":"#FF4136",
      "url":"",
      "tags":{
        "topics":{
          "title":"Topics",
          "id":"cloud:topics",
          "url":"/content/www/us/en/cloud/topics.html",
          "tags":{
            "all-topics":{
              "title":"All topics",
              "id":"cloud:topics/all-topics",
              "url":"/content/www/us/en/create/topics/all-topics.html",
              "tags":{

              }
            },
            "design":{
              "title":"Design",
              "id":"cloud:topics/design",
              "url":"/content/www/us/en/create/topics/design.html",
              "tags":{

              }
            },
            "photography":{
              "title":"Photography",
              "id":"cloud:topics/photography",
              "url":"/content/www/us/en/create/topics/photography.html",
              "tags":{

              }
            },
            "ui-and-ux":{
              "title":"UI & UX",
              "id":"cloud:topics/ui-and-ux",
              "url":"/content/www/us/en/create/topics/ui-and-ux.html",
              "tags":{

              }
            },
            "video":{
              "title":"Video",
              "id":"cloud:topics/video",
              "url":"/content/www/us/en/create/topics/video.html",
              "tags":{

              }
            },
            "illustration":{
              "title":"Illustration",
              "id":"cloud:topics/illustration",
              "url":"/content/www/us/en/create/topics/illustration.html",
              "tags":{

              }
            }
          }
        },
        "types":{
          "title":"Types",
          "id":"cloud:types",
          "url":"/content/www/us/en/cloud/types.html",
          "tags":{
            "all-types":{
              "title":"All types",
              "id":"cloud:types/all-types",
              "url":"/content/www/us/en/create/types/all-types.html",
              "tags":{

              }
            },
            "how-tos":{
              "title":"How-tos",
              "id":"cloud:types/how-tos",
              "url":"/content/www/us/en/cloud/types/how-tos.html",
              "tags":{

              }
            },
            "live-streams":{
              "title":"Live streams",
              "id":"cloud:types/live-streams",
              "url":"/content/www/us/en/cloud/types/live-streams.html",
              "tags":{

              }
            },
            "challenges":{
              "title":"Challenges",
              "id":"cloud:types/challenges",
              "url":"/content/www/us/en/cloud/types/perspectives.html",
              "tags":{

              }
            },
            "inspiration":{
              "title":"Inspiration",
              "id":"cloud:types/inspiration",
              "url":"/content/www/us/en/cloud/types/inspiration.html",
              "tags":{

              }
            },
            "interviews":{
              "title":"Interviews",
              "id":"cloud:types/interviews",
              "url":"/content/www/us/en/cloud/types/interviews.html",
              "tags":{

              }
            },
            "free-stuff":{
              "title":"Free stuff",
              "id":"cloud:types/free-stuff",
              "url":"/content/www/us/en/cloud/types/free-stuff.html",
              "tags":{

              }
            },
            "jobs":{
              "title":"Jobs",
              "id":"cloud:types/jobs",
              "url":"/content/www/us/en/cloud/types/jobs.html",
              "tags":{

              }
            }
          }
        },
        "skills":{
          "title":"Skills",
          "id":"cloud:skills",
          "url":"/content/www/us/en/cloud/skills.html",
          "tags":{
            "all-skill-levels":{
              "title":"All skill levels",
              "id":"cloud:skills/all-skill-levels",
              "url":"/content/www/us/en/create/skills/all-skill-levels.html",
              "tags":{

              }
            },
            "beginner":{
              "title":"Beginner",
              "id":"cloud:skills/beginner",
              "url":"/content/www/us/en/cloud/skills/beginner.html",
              "tags":{

              }
            },
            "intermediate":{
              "title":"Intermediate",
              "id":"cloud:skills/intermediate",
              "url":"/content/www/us/en/cloud/skills/intermediate.html",
              "tags":{

              }
            },
            "advanced":{
              "title":"Advanced",
              "id":"cloud:skills/advanced",
              "url":"/content/www/us/en/cloud/skills/advanced.html",
              "tags":{

              }
            }
          }
        }
      }
    }
  }
}